duck
…
con.sql("SET memory_limit='6GB'")

con.sql("SELECT current_setting('threads')")

┌────────────────────────────┐
│ current_setting('threads') │
│           int64            │
├────────────────────────────┤
│                         16 │
└────────────────────────────┘

con.sql("SELECT * FROM 'Marks.csv'")

┌────────┬───────────┬───────────┬───────────┬──────────────┬────────────┐
│ MarkID │ StudentID │ SubjectID │ TeacherID │ MarkObtained │  ExamDate  │
│ int64  │   int64   │   int64   │   int64   │    int64     │    date    │
├────────┼───────────┼───────────┼───────────┼──────────────┼────────────┤
│      1 │         1 │         1 │         1 │           85 │ 2023-11-22 │
│      2 │         1 │         2 │         2 │           78 │ 2023-11-22 │
│      3 │         1 │         3 │         3 │           92 │ 2023-11-22 │
│      4 │         1 │         4 │         4 │           88 │ 2023-11-22 │
│      5 │         1 │         5 │         5 │           95 │ 2023-11-22 │
│      6 │         1 │         6 │         6 │           80 │ 2023-11-22 │
│      7 │         1 │         7 │         7 │           75 │ 2023-11-22 │
│      8 │         1 │         8 │         8 │           89 │ 2023-11-22 │
│      9 │         1 │         9 │         9 │           91 │ 2023-11-22 │
│     10 │         1 │        10 │        10 │           93 │ 2023-11-22 │
│      · │         · │         · │         · │            · │     ·      │
│      · │         · │         · │         · │            · │     ·      │
│      · │         · │         · │         · │            · │     ·      │
│    231 │        20 │         1 │         1 │           82 │ 2023-11-22 │
│    232 │        20 │         2 │         2 │           76 │ 2023-11-22 │
│    233 │        20 │         3 │         3 │           91 │ 2023-11-22 │
│    234 │        20 │         4 │         4 │           84 │ 2023-11-22 │
│    235 │        20 │         5 │         5 │           89 │ 2023-11-22 │
│    236 │        20 │         6 │         6 │           83 │ 2023-11-22 │
│    237 │        20 │         7 │         7 │           79 │ 2023-11-22 │
│    238 │        20 │         8 │         8 │           95 │ 2023-11-22 │
│    239 │        20 │         9 │         9 │           88 │ 2023-11-22 │
│    240 │        20 │        10 │        10 │           92 │ 2023-11-22 │
├────────┴───────────┴───────────┴───────────┴──────────────┴────────────┤
│ 240 rows (20 shown)                                          6 columns │
└────────────────────────────────────────────────────────────────────────┘

con.sql("SELECT * FROM 'core_emissions.parquet'")

┌───────┬─────────┬────────────────────┬────────────────────┐
│ year  │  state  │    so2_mass_lbs    │    nox_mass_lbs    │
│ int32 │ varchar │       double       │       double       │
├───────┼─────────┼────────────────────┼────────────────────┤
│  1996 │ GA      │  753927492.9808772 │ 244661488.37480748 │
│  1998 │ AZ      │ 203686519.80564362 │ 170206785.20515555 │
│  1999 │ DC      │  2864501.296291709 │  894183.3523827046 │
│  1999 │ SD      │   51391227.3654905 │ 47312150.408458956 │
│  2001 │ MS      │  276717210.5687789 │ 115624727.74636243 │
│  2001 │ AR      │ 157458325.83983696 │  94951953.27413897 │
│  2002 │ NJ      │  96538357.87626874 │  72961842.99603403 │
│  2003 │ FL      │  950646956.0189934 │  505311729.8340998 │
│  2005 │ CA      │   344796.168035196 │  8713237.151738198 │
│  2005 │ NJ      │ 108107141.11004217 │   60295276.8560797 │
│    ·  │ ·       │          ·         │           ·        │
│    ·  │ ·       │          ·         │           ·        │
│    ·  │ ·       │          ·         │           ·        │
│  2012 │ SD      │ 24582237.592013773 │  21333735.54024019 │
│  2016 │ OK      │  98969336.43804415 │  50632643.54309953 │
│  2018 │ OR      │  4721399.584484052 │  4897488.701005484 │
│  2019 │ MN      │  18159855.89949069 │  26865394.57118152 │
│  2019 │ AZ      │  24187509.24642703 │  53541917.93067911 │
│  2019 │ IA      │  53486619.60029486 │  36469463.72167818 │
│  2020 │ IA      │ 35228335.673727825 │ 23809478.443251856 │
│  2021 │ MT      │  9428343.251987912 │ 16589205.560185421 │
│  2021 │ AZ      │ 15097273.145961093 │ 30630576.469457306 │
│  2022 │ OK      │ 25569490.344163783 │ 37747285.551768966 │
├───────┴─────────┴────────────────────┴────────────────────┤
│ 1378 rows (20 shown)                            4 columns │
└───────────────────────────────────────────────────────────┘
…
